iteration,energy,e-efci,Number of CNOTs,Number of experiments
1,-15.566756541415625,0.028490044305270246,13,1512
2,-15.570935203473198,0.024311382247697466,26,3050
3,-15.575216182048717,0.020030403672178565,39,4621
4,-15.579277222735913,0.015969362984982638,52,6228
5,-15.582317535772962,0.012929049947933535,65,7831
6,-15.584936284782197,0.010310300938698447,78,9450
7,-15.587404164889408,0.007842420831487118,91,11106
8,-15.589890522433883,0.005356063287011992,104,12772
9,-15.592604141716185,0.0026424440047101427,117,14464
10,-15.594260914018951,0.0009856717019438577,130,16181
11,-15.594330785889285,0.0009157998316098315,132,17917
12,-15.594400005456103,0.0008465802647918963,134,19669
13,-15.59445339850367,0.0007931872172246557,147,21445
14,-15.59451085928485,0.0007357264360461357,160,23232
15,-15.5945541911364,0.0006923945844956592,173,24976
16,-15.59459707031911,0.000649515401784484,186,26789
17,-15.594638975846244,0.0006076098746508052,199,28598
18,-15.594680445976287,0.0005661397446079519,212,30455
19,-15.594720439346695,0.0005261463742005645,225,32383
20,-15.594756211627354,0.0004903740935411349,238,34337
21,-15.594779620831591,0.0004669648893038669,251,36349
22,-15.594802796176104,0.00044378954479107335,264,38380
23,-15.59481683504849,0.000429750672404694,266,40588
24,-15.594830777655334,0.00041580806556140715,268,42861
25,-15.59484047823722,0.0004061074836751999,281,44864
26,-15.594850095107304,0.0003964906135909274,294,46916
27,-15.59485383316474,0.0003927525561557843,307,49319
28,-15.594857358161965,0.0003892275589301164,320,51640
29,-15.594860311193816,0.00038627452707906684,333,53712
30,-15.594863237300057,0.0003833484208382032,346,55939
31,-15.594864609355719,0.0003819763651762287,359,57959
32,-15.594865795748944,0.0003807899719507901,372,60099
33,-15.59486694767907,0.0003796380418261691,385,62146
34,-15.594867964927627,0.0003786207932687802,398,64265
35,-15.594868764423662,0.0003778212972331829,400,66352
36,-15.59486938175327,0.00037720396762530584,402,68549
37,-15.594869385183665,0.00037720053722978264,415,70381
