iteration,energy,e-efci,Number of CNOTs,Number of experiments
1,-15.383292700004748,0.06978193726734538,13,10949
2,-15.3981488643507,0.054925772921393445,26,21924
3,-15.414730515327927,0.03834412194416714,39,32916
4,-15.42208615270022,0.030988484571873087,52,43893
5,-15.426271157720382,0.026803479551711362,65,54921
6,-15.4323756877332,0.020698949538893174,78,65990
7,-15.43701243243115,0.016062204840944005,91,77073
8,-15.443884346798619,0.00919029047347486,104,88183
9,-15.445637388301474,0.007437248970619592,117,99296
10,-15.447305736368047,0.005768900904046248,130,110431
11,-15.447875480801391,0.0051991564707023485,143,121638
12,-15.448521437481867,0.004553199790226614,156,133104
13,-15.448664439539758,0.004410197732335419,169,144403
14,-15.448801296822133,0.004273340449961083,182,155617
15,-15.448914253386523,0.004160383885571051,195,167011
16,-15.449022247294595,0.004052389977498905,208,178413
17,-15.449104056838474,0.003970580433620086,221,189918
18,-15.449260246239412,0.0038143910326819963,234,201440
19,-15.449409297781848,0.0036653394902455005,247,213138
20,-15.449449308526955,0.0036253287451391003,260,224472
21,-15.449489029934101,0.0035856073379925135,273,235957
22,-15.449524643724,0.0035499935480931555,286,247291
23,-15.449560076631055,0.0035145606410385,299,258681
24,-15.449595320883637,0.003479316388457221,312,270429
25,-15.449627088168493,0.003447549103601233,325,281945
26,-15.44966975045623,0.0034048868158631507,338,293765
27,-15.449710161945925,0.003364475326169014,351,305564
28,-15.449733767912273,0.0033408693598211414,364,317322
29,-15.449757184246936,0.003317453025157846,377,328925
30,-15.449874964514047,0.003199672758047001,390,340700
31,-15.449962620271824,0.003112017000269418,403,352473
32,-15.450119768665422,0.0029548686066718233,416,364246
33,-15.450208953039184,0.002865684232910226,429,376038
34,-15.450260121766549,0.00281451550554479,442,387802
35,-15.45033672061807,0.0027379166540235644,455,399529
36,-15.45036873460851,0.0027059026635836148,468,411276
37,-15.450392248592975,0.0026823886791191853,481,423002
38,-15.45040985899462,0.0026647782774738005,494,434737
39,-15.450418022697313,0.0026566145747803915,507,446472
40,-15.450424518318947,0.0026501189531469294,520,458174
41,-15.450436980707805,0.002637656564289159,533,469870
42,-15.450449376805244,0.0026252604668499657,546,481558
43,-15.45045909263341,0.002615544638683076,559,493216
44,-15.45046381745899,0.0026108198131034044,572,504879
45,-15.450467225822104,0.0026074114499898826,585,516531
46,-15.450471743674587,0.0026028935975066503,598,528175
47,-15.450478261252185,0.0025963760199090302,611,539814
48,-15.450481893177075,0.0025927440950184177,624,551429
49,-15.450483874499414,0.002590762772680222,637,563039
50,-15.450488510013807,0.0025861272582865524,650,574646
51,-15.45049222356646,0.0025824137056336127,663,586246
52,-15.450496078893803,0.002578558378290907,676,597845
53,-15.450498593835968,0.002576043436125275,689,609442
54,-15.450502691994464,0.00257194527763005,702,621044
55,-15.450506236505772,0.002568400766321588,715,632626
56,-15.450510652308155,0.0025639849639382817,728,644201
57,-15.450515667460373,0.0025589698117212123,741,655783
58,-15.450520829820388,0.0025538074517061915,754,667357
59,-15.45052364773684,0.002550989535253123,767,678921
60,-15.45052669994454,0.002547937327554095,780,690471
61,-15.450529976879462,0.0025446603926315703,793,702045
62,-15.450532828862983,0.0025418084091111126,806,713607
63,-15.450534457705388,0.0025401795667061577,819,725162
64,-15.450537191815464,0.0025374454566300386,832,736713
65,-15.450540089297666,0.0025345479744274257,845,748259
66,-15.4505422171847,0.0025324200873946268,858,759799
67,-15.45054376558017,0.002530871691924119,871,771336
68,-15.450545194296959,0.002529442975134799,884,782872
69,-15.450547039136827,0.0025275981352663734,897,794416
70,-15.450548545072285,0.002526092199808261,910,805971
71,-15.450550091154696,0.002524546117397719,923,817506
72,-15.450551388186515,0.0025232490855788825,936,829035
73,-15.450552946152882,0.002521691119211411,949,840567
74,-15.450554727669441,0.0025199096026522483,962,852104
75,-15.450556440931987,0.0025181963401070817,975,863630
76,-15.450558599044301,0.00251603822779245,988,875145
77,-15.450560879643835,0.0025137576282592278,1001,886679
78,-15.450563536398883,0.0025111008732103812,1014,898221
79,-15.450565840072063,0.0025087972000310543,1027,909741
80,-15.450568620407788,0.002506016864305849,1040,921255
81,-15.450570797829645,0.0025038394424488075,1053,932784
82,-15.450573318163828,0.002501319108265676,1066,944299
83,-15.45057583085176,0.0024988064203341764,1079,955807
84,-15.450578593556672,0.0024960437154213366,1092,967311
85,-15.450581864219407,0.002492773052686914,1105,978847
86,-15.450584477181566,0.0024901600905273824,1118,990370
87,-15.450586749374406,0.002487887897688168,1131,1001878
88,-15.450590202006557,0.0024844352655364332,1144,1013389
89,-15.450593491014503,0.0024811462575904386,1157,1024902
90,-15.450596243850926,0.002478393421167624,1170,1036406
91,-15.450600495009994,0.0024741422621001874,1183,1047913
92,-15.45060456566045,0.0024700716116434762,1196,1059451
93,-15.450609070891856,0.0024655663802377603,1209,1070971
94,-15.450615396516634,0.0024592407554600015,1222,1082493
95,-15.450618917929226,0.0024557193428673685,1235,1094012
96,-15.450623272016282,0.0024513652558120214,1248,1105555
97,-15.450627980114888,0.0024466571572059337,1261,1117096
98,-15.450633403222028,0.002441234050065688,1274,1128624
99,-15.450637856047413,0.0024367812246808285,1287,1140171
100,-15.450643623281394,0.002431013990699782,1300,1151722
101,-15.450650897565883,0.0024237397062112365,1313,1163272
102,-15.450656904672664,0.0024177325994294563,1326,1174814
103,-15.450662978364296,0.002411658907798042,1339,1186380
104,-15.450670981446077,0.0024036558260167595,1352,1197927
105,-15.450679282422728,0.002395354849365816,1365,1209536
106,-15.45068686560267,0.0023877716694240547,1378,1221094
107,-15.450692922975723,0.002381714296371129,1391,1232643
108,-15.450700198474998,0.00237443879709609,1404,1244209
109,-15.450709306365882,0.0023653309062119376,1417,1255792
110,-15.450716871842102,0.002357765429991332,1430,1267361
111,-15.45072664503647,0.0023479922356237637,1443,1278931
112,-15.450736413980666,0.0023382232914279655,1456,1290515
113,-15.450743982108076,0.0023306551640178697,1469,1302104
114,-15.450749941281753,0.002324695990340686,1482,1313681
115,-15.450758436231732,0.002316201040361676,1495,1325251
116,-15.450765528752209,0.0023091085198849726,1508,1336826
117,-15.450774641640121,0.0022999956319722514,1521,1348373
118,-15.45078014936294,0.002294487909153986,1534,1359955
119,-15.450792026496526,0.002282610775568017,1547,1371560
120,-15.450798226482881,0.0022764107892125907,1560,1383117
121,-15.450807508893133,0.0022671283789605923,1573,1394705
122,-15.45081719325251,0.002257444019583943,1586,1406317
123,-15.450828303143462,0.002246334128631844,1599,1417932
124,-15.450841056011106,0.00223358126098816,1612,1429542
125,-15.450852635444049,0.002222001828044995,1625,1441167
126,-15.450863079487723,0.0022115577843706546,1638,1452773
127,-15.45087519497416,0.0021994422979343398,1651,1464394
128,-15.450886160442998,0.0021884768290956202,1664,1476025
129,-15.450898288703096,0.0021763485689980655,1677,1487671
130,-15.450909456216081,0.0021651810560125995,1690,1499322
131,-15.450919473762191,0.0021551635099026356,1703,1510951
132,-15.450936013544268,0.0021386237278253617,1716,1522572
133,-15.450951776212694,0.002122861059399739,1729,1534205
134,-15.450969673931933,0.002104963340160637,1742,1545852
135,-15.450986896382675,0.0020877408894186544,1755,1557496
136,-15.451000662225162,0.002073975046931409,1768,1569162
137,-15.451021405091394,0.002053232180699638,1781,1580801
138,-15.451035831508461,0.0020388057636324675,1794,1592456
139,-15.451057045843687,0.002017591428407073,1807,1604103
140,-15.451073295865688,0.002001341406405288,1820,1615758
141,-15.451085428918551,0.0019892083535424376,1833,1627413
142,-15.451103608525987,0.0019710287461069953,1846,1639064
143,-15.451121663261873,0.001952974010221098,1859,1650724
144,-15.451141078538061,0.0019335587340325588,1872,1662352
145,-15.45115934375399,0.0019152935181043773,1885,1673984
146,-15.451174296353846,0.001900340918247423,1898,1685648
147,-15.45119288289954,0.0018817543725528907,1911,1697312
148,-15.451207906172455,0.0018667310996391961,1924,1708966
149,-15.451226372416015,0.0018482648560791404,1937,1720630
150,-15.451249200346254,0.0018254369258396963,1950,1732310
