iteration,energy,e-efci,Number of CNOTs,Number of experiments
1,-7.877119623435882,0.005642225310112714,13,2045
2,-7.878887998429371,0.0038738503166237948,26,4067
3,-7.88052583399506,0.0022360147509346007,39,6066
4,-7.8810921836451255,0.0016696651008691887,52,8054
5,-7.881567029494956,0.0011948192510384814,65,10031
6,-7.8820236868412525,0.000738161904742185,78,11967
7,-7.8821938055224905,0.0005680432235042332,91,13910
8,-7.882347026326519,0.0004148224194757688,104,15848
9,-7.882429075057298,0.00033277368869644164,117,17781
10,-7.882451752369197,0.00031009637679790814,130,19715
11,-7.882472959649297,0.0002888890966978863,143,21650
12,-7.8824937515570035,0.00026809718899123425,156,23586
13,-7.882514387029769,0.0002474617162260273,169,25523
14,-7.882532955226864,0.00022889351913057965,182,27461
15,-7.882551046056577,0.0002108026894180881,195,29400
16,-7.882572525180445,0.00018932356555012575,208,31340
17,-7.882588603924741,0.0001732448212541371,221,33281
18,-7.8826091676611965,0.00015268108479826736,234,35223
19,-7.882627925852496,0.00013392289349845043,247,37166
20,-7.882642671719807,0.00011917702618813308,260,39110
21,-7.8826528959639095,0.00010895278208522541,273,41055
22,-7.88265919869002,0.00010265005597442922,286,43001
23,-7.882665014411191,9.683433480400794e-05,299,44948
24,-7.882670413701938,9.143504405706437e-05,312,46896
25,-7.8826749706819275,8.687806406726395e-05,325,48845
26,-7.882679307339846,8.254140614916139e-05,338,50795
27,-7.882683235784188,7.861296180688981e-05,351,52746
28,-7.882686723515876,7.512523011854455e-05,364,54698
29,-7.8826900177561585,7.183098983620795e-05,377,56651
30,-7.882693379938643,6.846880735178473e-05,390,58605
31,-7.882696429871307,6.541887468802798e-05,403,60560
32,-7.882700129696715,6.171904927931848e-05,416,62516
33,-7.882702768418511,5.908032748358494e-05,429,64473
34,-7.88270547284098,5.637590501450518e-05,442,66431
35,-7.882707790491423,5.4058254571387465e-05,455,68390
36,-7.882710109238389,5.173950760539725e-05,468,70350
37,-7.882712730207213,4.911853878208916e-05,481,72311
38,-7.882714857539434,4.6991206560598187e-05,494,74273
39,-7.882717570797046,4.427794894912296e-05,507,76236
40,-7.882719485732674,4.236301332039005e-05,520,78200
41,-7.882721139366908,4.070937908640104e-05,533,80165
42,-7.8827337147262355,2.8134019759207263e-05,546,82131
43,-7.8827377027157315,2.4146030263239027e-05,559,84098
44,-7.882738737154041,2.3111591954005917e-05,572,86066
45,-7.88273919724609,2.2651499905101957e-05,585,88035
46,-7.882739543596019,2.2305149975920813e-05,598,90005
47,-7.882739836855068,2.2011890926876276e-05,611,91976
48,-7.882740149465109,2.1699280885911776e-05,624,93948
49,-7.882740506646229,2.134209976567547e-05,637,95921
50,-7.882740872186523,2.0976559471641565e-05,650,97895
51,-7.882741184292582,2.066445341242229e-05,663,99870
52,-7.882741512542573,2.033620342167808e-05,676,101846
53,-7.882741757774939,2.009097105570845e-05,689,103823
54,-7.882741980708457,1.9868037537840166e-05,702,105801
55,-7.882742213680119,1.9635065875434066e-05,715,107780
56,-7.882742434470162,1.9414275832296823e-05,728,109760
57,-7.882742642040127,1.920670586752493e-05,741,111741
58,-7.8827428660382255,1.898270776923283e-05,754,113723
59,-7.882743077323714,1.877142228057238e-05,767,115706
60,-7.882743305301766,1.854344422902443e-05,780,117690
61,-7.882743641880621,1.820686537357119e-05,793,119675
62,-7.88274393233834,1.791640765436142e-05,806,121661
63,-7.882744225790013,1.7622955981622113e-05,819,123648
64,-7.882744481714151,1.736703184374022e-05,832,125636
65,-7.882744738236623,1.71105093720314e-05,845,127625
66,-7.882745241091965,1.6607654029776597e-05,858,129615
67,-7.882745932620067,1.591612592743985e-05,871,131606
68,-7.88274628436597,1.5564380024812863e-05,884,133598
69,-7.882746441866657,1.5406879337653834e-05,897,135591
70,-7.882746583162586,1.5265583408918815e-05,910,137585
71,-7.882746720668608,1.512807738635047e-05,923,139580
72,-7.882746868853681,1.4979892314137544e-05,936,141576
73,-7.8827470058335,1.4842912494650307e-05,949,143573
74,-7.882747444811769,1.4403934225803994e-05,962,145571
75,-7.882748404487455,1.3444258539330178e-05,975,147570
76,-7.882748699248374,1.3149497620545958e-05,988,149570
77,-7.882748829005817,1.3019740177533379e-05,1001,151571
78,-7.882748898878361,1.2949867633338386e-05,1014,153573
79,-7.882748969357218,1.287938877680972e-05,1027,155576
80,-7.882749043437661,1.280530833369653e-05,1040,157580
81,-7.882749110604653,1.2738141341728237e-05,1053,159585
82,-7.88274916978207,1.2678963924983577e-05,1066,161591
83,-7.882749224056567,1.262468942808681e-05,1079,163598
84,-7.882749272290191,1.2576455803881004e-05,1092,165606
85,-7.882749315124989,1.2533621005950124e-05,1105,167615
86,-7.882749366561448,1.2482184546414032e-05,1118,169625
87,-7.882749407468859,1.2441277135621931e-05,1131,171636
88,-7.8827494496781325,1.2399067862212121e-05,1144,173648
89,-7.882749504028172,1.2344717823076223e-05,1157,175661
90,-7.882749558815201,1.2289930793940584e-05,1170,177675
91,-7.882749607301891,1.2241444103722188e-05,1183,179690
92,-7.8827496559947425,1.2192751252193545e-05,1196,181706
93,-7.8827496993443384,1.2149401656280645e-05,1209,183723
94,-7.882749742870632,1.2105875362600216e-05,1222,185741
95,-7.882749782177061,1.2066568933377653e-05,1235,187760
96,-7.882749821250001,1.2027495993827131e-05,1248,189780
97,-7.882749853911482,1.1994834512307762e-05,1261,191801
98,-7.882749886577155,1.196216883947443e-05,1274,193823
99,-7.882750076976383,1.1771769611534921e-05,1287,195846
100,-7.88275024099753,1.1607748464648182e-05,1300,197870
101,-7.882750302403141,1.1546342853385738e-05,1313,199895
102,-7.882750351404435,1.1497341559696395e-05,1326,201921
103,-7.882750451782824,1.1396963170540175e-05,1339,203948
104,-7.882750536677489,1.1312068505908712e-05,1352,205976
105,-7.882750555218992,1.1293527002464998e-05,1365,208005
106,-7.882750567539083,1.1281206911739616e-05,1378,210035
107,-7.88275057689468,1.1271851314553771e-05,1391,212066
108,-7.882750586366814,1.1262379180365656e-05,1404,214098
109,-7.88275059592001,1.125282598479771e-05,1417,216131
110,-7.882750604500814,1.1244245180286327e-05,1430,218165
111,-7.8827506133034255,1.1235442569201837e-05,1443,220200
112,-7.882750621198871,1.1227547124015302e-05,1456,222236
113,-7.882750628681675,1.1220064319417133e-05,1469,224273
114,-7.8827506362386135,1.1212507381230807e-05,1482,226311
115,-7.882750644245725,1.1204500269812456e-05,1495,228350
116,-7.882750651394227,1.1197351767577857e-05,1508,230390
117,-7.882750658626831,1.1190119163728696e-05,1521,232431
118,-7.882750667936047,1.1180809948108106e-05,1534,234473
119,-7.882750677577487,1.117116850757327e-05,1547,236516
120,-7.882750686969201,1.1161776793500167e-05,1560,238560
121,-7.88275069725431,1.1151491684735504e-05,1573,240605
122,-7.88275070494542,1.1143800574764384e-05,1586,242651
123,-7.882750713794128,1.1134951866331733e-05,1599,244698
124,-7.882750757460521,1.1091285474051915e-05,1612,246746
125,-7.882750795932832,1.105281316249318e-05,1625,248795
126,-7.882750803008927,1.1045737068116068e-05,1638,250845
127,-7.882750808504605,1.1040241389537186e-05,1651,252896
128,-7.882750814064596,1.1034681398847113e-05,1664,254948
129,-7.882750820831242,1.1027914752936852e-05,1677,257001
130,-7.882750827110391,1.1021635603292168e-05,1690,259055
131,-7.882750896460335,1.0952285659726613e-05,1703,261110
132,-7.882750947152512,1.0901593483048089e-05,1716,263166
133,-7.88275096922842,1.0879517574835518e-05,1729,265223
134,-7.882750979863837,1.0868882157843984e-05,1742,267281
135,-7.882750984853815,1.086389217963557e-05,1755,269340
136,-7.882750988532681,1.0860213313534928e-05,1768,271400
137,-7.882750992879998,1.0855865996362013e-05,1781,273461
138,-7.882750996699475,1.0852046520071212e-05,1794,275523
139,-7.882750999628728,1.0849117266786834e-05,1807,277586
140,-7.882751002583067,1.084616292779117e-05,1820,279650
141,-7.882751007317899,1.0841428095709205e-05,1833,281715
142,-7.882751012349912,1.0836396082680722e-05,1846,283781
143,-7.882751016905727,1.0831840267400139e-05,1859,285848
144,-7.882751021906318,1.0826839676347788e-05,1872,287916
145,-7.882751026341758,1.0822404236776606e-05,1885,289985
146,-7.88275103119897,1.0817547024366547e-05,1898,292055
147,-7.882751035439623,1.0813306372092768e-05,1911,294126
148,-7.882751040463794,1.0808282200791552e-05,1924,296198
149,-7.882751044638438,1.0804107557049747e-05,1937,298271
150,-7.882751049384867,1.0799361128022156e-05,1950,300345
