iteration,energy,e-efci,Number of CNOTs,Number of experiments
1,-98.59606732551475,0.007234268461630222,13,1722
2,-98.59817676207793,0.00512483189845625,26,3452
3,-98.60003463123886,0.003266962737527024,39,5192
4,-98.6020550982538,0.001246495722583063,52,6964
5,-98.60242834612932,0.0008732478470676597,65,8763
6,-98.60277835909879,0.0005232348775905393,78,10548
7,-98.60293423027005,0.0003673637063315027,91,12340
8,-98.60307849868178,0.00022309529460073918,104,14149
9,-98.60309378855808,0.00020780541829878985,117,16008
10,-98.60313348836956,0.0001681056068179032,130,18039
11,-98.60317158794005,0.00013000603632917773,143,20074
12,-98.6031787840392,0.00012280993718150057,156,21947
13,-98.60318570343509,0.00011589054129501619,169,23811
14,-98.60322139600129,8.019797509462023e-05,182,26442
15,-98.60322803372826,7.35602481256592e-05,195,29071
16,-98.60323412211666,6.747185972244552e-05,208,31323
17,-98.60325519932344,4.639465294076217e-05,221,33904
18,-98.60328138417553,2.020980085148949e-05,234,36489
19,-98.60329309158213,8.50239425176369e-06,247,39076
20,-98.60329671242818,4.881548207436026e-06,260,41649
21,-98.60329753524907,4.058727313349664e-06,273,44205
22,-98.60329806496141,3.5290149753564037e-06,286,46763
23,-98.60329829250652,3.3014698601618875e-06,299,49317
24,-98.60329841193676,3.1820396202419943e-06,312,51867
25,-98.60329862409576,2.9698806258693367e-06,325,54411
26,-98.60329879172647,2.8022499094504383e-06,338,56957
27,-98.60329894644619,2.647530195076797e-06,351,59506
28,-98.603299012298,2.58167838751433e-06,364,62052
29,-98.60329910505862,2.4889177581144395e-06,377,64600
30,-98.60329920146735,2.3925090317789e-06,390,67146
31,-98.60329929174608,2.30223029973331e-06,403,69693
32,-98.60329940464891,2.1893274748663316e-06,416,72236
33,-98.60329951027201,2.0837043734900362e-06,429,74778
34,-98.60329960073868,1.9932377028908377e-06,442,77319
35,-98.60329973465721,1.8593191697391376e-06,455,79861
36,-98.60329981378305,1.7801933296368588e-06,468,82402
37,-98.60329990476099,1.6892153951175715e-06,481,84944
38,-98.6032999753381,1.6186382794103338e-06,494,87486
39,-98.60330004539927,1.548577117205241e-06,507,90028
40,-98.60330013260025,1.4613761294413052e-06,520,92570
41,-98.60330022877011,1.3652062733626735e-06,533,95111
42,-98.6033002976869,1.2962894828660865e-06,546,97652
43,-98.603300353693,1.2402833817759529e-06,559,100193
44,-98.60330043568557,1.1582908143736859e-06,572,102734
45,-98.60330048649638,1.107480002815464e-06,585,105275
46,-98.60330054198587,1.0519905089267922e-06,598,107816
47,-98.60330061472155,9.79254835442589e-07,611,110357
